Files Created in ##TEST_PATH##:
Using: ##SOURCE_PATH##/mumps -run GDE
mumps.gld
Using: ##SOURCE_PATH##/mupip
a.dat
mumps.dat

File  	##TEST_PATH##/a.dat
Region	AREG

DSE> 
File  	##TEST_PATH##/mumps.dat
Region	DEFAULT

DSE> DSE> 
File  	##TEST_PATH##/a.dat
Region	AREG

DSE> DSE> 
File            ##TEST_PATH##/a.dat
Region          AREG
##TEST_AWKDate/Time       [0-9][0-9]-[A-Z][A-Z][A-Z]-[0-9][0-9][0-9][0-9] [0-9][0-9]:[0-9][0-9]:[0-9][0-9] ..H = [5-9][0-9][0-9][0-9][0-9],[0-9]+.
##TEST_AWK  Access method                          (BG|MM)  Global Buffers                1024
  Reserved Bytes                          0  Block size (in bytes)         4096
  Maximum record size                   256  Starting VBN                   513
  Maximum key size                      200  Total blocks            0x00000065
  Null subscripts                    ALWAYS  Free blocks             0x00000062
  Standard Null Collation              TRUE  Free space              0x00000000
  Last Record Backup     0x0000000000000001  Extension Count                100
  Last Database Backup   0x0000000000000001  Number of local maps             1
  Last Bytestream Backup 0x0000000000000001  Lock space              0x00000028
  In critical section            0x00000000  Timers pending                   0
  Cache freeze id                0x00000000  Flush timer            00:00:01:00
  Freeze match                   0x00000000  Flush trigger                  960
  Freeze online                       FALSE  Freeze online autorelease    FALSE
  Current transaction    0x0000000000000001  No. of writes/flush              7
  Maximum TN             0xFFFFFFFF83FFFFFF  Certified for Upgrade to        V6
  Maximum TN Warn        0xFFFFFFFD93FFFFFF  Desired DB Format               V6
  Master Bitmap Size                    496  Blocks to Upgrade       0x00000000
  Create in progress                  FALSE  Modified cache blocks            0
  Reference count                         1  Wait Disk                        0
  Journal State                    DISABLED
  Mutex Hard Spin Count                 128  Mutex Sleep Spin Count         128
  Mutex Queue Slots                    1024  KILLs in progress                0
  Replication State                     OFF  Region Seqno    0x0000000000000001
  Zqgblmod Seqno         0x0000000000000000  Zqgblmod Trans  0x0000000000000000
  Endian Format      ##FILTERED####ENDIAN##  Commit Wait Spin Count          16
  Database file encrypted      ##FILTERED##  Inst Freeze on Error         ##FILTERED##
  Spanning Node Absent         ##FILTERED##  Maximum Key Size Assured  ##FILTERED##
  Defer allocation             ##FILTERED##  Spin sleep time mask  ##FILTERED##
  Async IO                              OFF  WIP queue cache blocks           0
  DB is auto-created                  FALSE  DB shares gvstats             TRUE
  LOCK shares DB critical section     FALSE  Read Only                      OFF
  Recover interrupted                 FALSE
  Reorg Sleep Nanoseconds                 0
DSE> 
File  	##TEST_PATH##/mumps.dat
Region	DEFAULT

DSE> DSE> 
File            ##TEST_PATH##/mumps.dat
Region          DEFAULT
##TEST_AWKDate/Time       [0-9][0-9]-[A-Z][A-Z][A-Z]-[0-9][0-9][0-9][0-9] [0-9][0-9]:[0-9][0-9]:[0-9][0-9] ..H = [5-9][0-9][0-9][0-9][0-9],[0-9]+.
##TEST_AWK  Access method                          (BG|MM)  Global Buffers                1024
  Reserved Bytes                          0  Block size (in bytes)         4096
  Maximum record size                   256  Starting VBN                   513
  Maximum key size                      200  Total blocks            0x00000065
  Null subscripts                    ALWAYS  Free blocks             0x00000062
  Standard Null Collation             FALSE  Free space              0x00000000
  Last Record Backup     0x0000000000000001  Extension Count                100
  Last Database Backup   0x0000000000000001  Number of local maps             1
  Last Bytestream Backup 0x0000000000000001  Lock space              0x00000028
  In critical section            0x00000000  Timers pending                   0
  Cache freeze id                0x00000000  Flush timer            00:00:01:00
  Freeze match                   0x00000000  Flush trigger                  960
  Freeze online                       FALSE  Freeze online autorelease    FALSE
  Current transaction    0x0000000000000001  No. of writes/flush              7
  Maximum TN             0xFFFFFFFF83FFFFFF  Certified for Upgrade to        V6
  Maximum TN Warn        0xFFFFFFFD93FFFFFF  Desired DB Format               V6
  Master Bitmap Size                    496  Blocks to Upgrade       0x00000000
  Create in progress                  FALSE  Modified cache blocks            0
  Reference count                         1  Wait Disk                        0
  Journal State                    DISABLED
  Mutex Hard Spin Count                 128  Mutex Sleep Spin Count         128
  Mutex Queue Slots                    1024  KILLs in progress                0
  Replication State                     OFF  Region Seqno    0x0000000000000001
  Zqgblmod Seqno         0x0000000000000000  Zqgblmod Trans  0x0000000000000000
  Endian Format      ##FILTERED####ENDIAN##  Commit Wait Spin Count          16
  Database file encrypted      ##FILTERED##  Inst Freeze on Error         ##FILTERED##
  Spanning Node Absent         ##FILTERED##  Maximum Key Size Assured  ##FILTERED##
  Defer allocation             ##FILTERED##  Spin sleep time mask  ##FILTERED##
  Async IO                              OFF  WIP queue cache blocks           0
  DB is auto-created                  FALSE  DB shares gvstats             TRUE
  LOCK shares DB critical section     FALSE  Read Only                      OFF
  Recover interrupted                 FALSE
  Reorg Sleep Nanoseconds                 0
DSE> 
YDB>

YDB>
both globals should collate differently

YDB>
^aforavariable("")="iam null"
^aforavariable(78)=1090
^aforavariable("ohayogozaimasu")="i said goodmorning"
^iamdefault(1009)=7869
^iamdefault(1009,"")=5090
^iamdefault(1009,"nippon")=90
^iamdefault("")="konnichiwa"
^iamdefault("konbanwa")="goodafternoon"

YDB>
%YDB-E-NULLCOLLDIFF, Null collation order must be the same for all regions
PASS! extract did fail as expected

YDB>

YDB>

File  	##TEST_PATH##/a.dat
Region	AREG

DSE> 
File  	##TEST_PATH##/mumps.dat
Region	DEFAULT

DSE> DSE> 
File            ##TEST_PATH##/mumps.dat
Region          DEFAULT
##TEST_AWKDate/Time       [0-9][0-9]-[A-Z][A-Z][A-Z]-[0-9][0-9][0-9][0-9] [0-9][0-9]:[0-9][0-9]:[0-9][0-9] ..H = [5-9][0-9][0-9][0-9][0-9],[0-9]+.
##TEST_AWK  Access method                          (BG|MM)  Global Buffers                1024
  Reserved Bytes                          0  Block size (in bytes)         4096
  Maximum record size                   256  Starting VBN                   513
  Maximum key size                      200  Total blocks            0x00000065
  Null subscripts                    ALWAYS  Free blocks             0x00000060
  Standard Null Collation              TRUE  Free space              0x00000000
  Last Record Backup     0x0000000000000001  Extension Count                100
  Last Database Backup   0x0000000000000001  Number of local maps             1
  Last Bytestream Backup 0x0000000000000001  Lock space              0x00000028
  In critical section            0x00000000  Timers pending                   0
  Cache freeze id                0x00000000  Flush timer            00:00:01:00
  Freeze match                   0x00000000  Flush trigger                  960
  Freeze online                       FALSE  Freeze online autorelease    FALSE
  Current transaction    0x0000000000000008  No. of writes/flush              7
  Maximum TN             0xFFFFFFFF83FFFFFF  Certified for Upgrade to        V6
  Maximum TN Warn        0xFFFFFFFD93FFFFFF  Desired DB Format               V6
  Master Bitmap Size                    496  Blocks to Upgrade       0x00000000
  Create in progress                  FALSE  Modified cache blocks            0
  Reference count                         1  Wait Disk                        0
  Journal State                    DISABLED
  Mutex Hard Spin Count                 128  Mutex Sleep Spin Count         128
  Mutex Queue Slots                    1024  KILLs in progress                0
  Replication State                     OFF  Region Seqno    0x0000000000000001
  Zqgblmod Seqno         0x0000000000000000  Zqgblmod Trans  0x0000000000000000
  Endian Format      ##FILTERED####ENDIAN##  Commit Wait Spin Count          16
  Database file encrypted      ##FILTERED##  Inst Freeze on Error         ##FILTERED##
  Spanning Node Absent         ##FILTERED##  Maximum Key Size Assured  ##FILTERED##
  Defer allocation             ##FILTERED##  Spin sleep time mask  ##FILTERED##
  Async IO                              OFF  WIP queue cache blocks           0
  DB is auto-created                  FALSE  DB shares gvstats             TRUE
  LOCK shares DB critical section     FALSE  Read Only                      OFF
  Recover interrupted                 FALSE
  Reorg Sleep Nanoseconds                 0
DSE> 
YDB>

YDB>
both globals should collate same

YDB>
^aforavariable("")="iam null"
^aforavariable(78)=1090
^aforavariable("ohayogozaimasu")="i said goodmorning"
^iamdefault("")="konnichiwa"
^iamdefault(1009)=7869
^iamdefault(1009,"")=5090
^iamdefault(1009,"nippon")=90
^iamdefault("konbanwa")="goodafternoon"

YDB>

PASS! extract successfull after change of collation
##SOURCE_PATH##/mupip
##SOURCE_PATH##/mupip integ -REG *
No errors detected by integ.
